module adhoc.com/mqtt-server

go 1.14

require (
	github.com/aws/aws-sdk-go v1.36.4 // indirect
	github.com/eclipse/paho.mqtt.golang v1.3.0
	github.com/golang/snappy v0.0.2 // indirect
	github.com/google/go-cmp v0.5.4 // indirect
	github.com/juju/errors v0.0.0-20200330140219-3fe23663418f
	github.com/juju/testing v0.0.0-20201030020617-7189b3728523 // indirect
	github.com/kisielk/errcheck v1.2.0 // indirect
	github.com/klauspost/compress v1.11.3 // indirect
	github.com/tidwall/pretty v1.0.2 // indirect
	go.mongodb.org/mongo-driver v1.4.4
	golang.org/x/crypto v0.0.0-20201208171446-5f87f3452ae9 // indirect
	golang.org/x/net v0.0.0-20201207224615-747e23833adb // indirect
	golang.org/x/sync v0.0.0-20201207232520-09787c993a3a // indirect
	golang.org/x/text v0.3.4 // indirect
	golang.org/x/xerrors v0.0.0-20200804184101-5ec99f83aff1 // indirect
	gopkg.in/check.v1 v1.0.0-20201130134442-10cb98267c6c // indirect
	gopkg.in/yaml.v2 v2.4.0 // indirect
	gopkg.in/yaml.v3 v3.0.0-20200615113413-eeeca48fe776 // indirect
)
